DAPT-632-Assignment-4_JE_V1.R
…
DAPT-632-Assignment-4_JE_V1.R

jelwe

2024-07-06

#Call on required packages 
library("fpp3")
library("GGally")

#View the data
vic_elec

## # A tsibble: 52,608 x 5 [30m] <Australia/Melbourne>
##    Time                Demand Temperature Date       Holiday
##    <dttm>               <dbl>       <dbl> <date>     <lgl>  
##  1 2012-01-01 00:00:00  4383.        21.4 2012-01-01 TRUE   
##  2 2012-01-01 00:30:00  4263.        21.0 2012-01-01 TRUE   
##  3 2012-01-01 01:00:00  4049.        20.7 2012-01-01 TRUE   
##  4 2012-01-01 01:30:00  3878.        20.6 2012-01-01 TRUE   
##  5 2012-01-01 02:00:00  4036.        20.4 2012-01-01 TRUE   
##  6 2012-01-01 02:30:00  3866.        20.2 2012-01-01 TRUE   
##  7 2012-01-01 03:00:00  3694.        20.1 2012-01-01 TRUE   
##  8 2012-01-01 03:30:00  3562.        19.6 2012-01-01 TRUE   
##  9 2012-01-01 04:00:00  3433.        19.1 2012-01-01 TRUE   
## 10 2012-01-01 04:30:00  3359.        19.0 2012-01-01 TRUE   
## #  52,598 more rows
…
augment(fit_demand_temp)

## # A tsibble: 31 x 6 [1D]
## # Key:       .model [1]
##    .model Date        Demand .fitted  .resid  .innov
##    <chr>  <date>       <dbl>   <dbl>   <dbl>   <dbl>
##  1 tslm   2014-01-01 175185. 219096. -43911. -43911.
##  2 tslm   2014-01-02 188351. 200633. -12282. -12282.
##  3 tslm   2014-01-03 189086. 195709.  -6624.  -6624.
##  4 tslm   2014-01-04 173798. 184016. -10219. -10219.
##  5 tslm   2014-01-05 169733. 219711. -49978. -49978.
##  6 tslm   2014-01-06 195241. 179708.  15533.  15533.
##  7 tslm   2014-01-07 199770. 182170.  17601.  17601.
##  8 tslm   2014-01-08 205339. 227712. -22373. -22373.
##  9 tslm   2014-01-09 227334. 258483. -31149. -31149.
## 10 tslm   2014-01-10 258111. 268330. -10219. -10219.
## #  21 more rows
…
#This plot tells me my model is wrong when looking at the full data set because we are using a linear fit for nonlinear data. My model does not account for the parabolic nature and says that as temperature decreases so will demand. This concept only works from the upper extreme temperatures to about 20C. 20C is the "floor" of the data and all temperatures lower than 20C begin the reverse trend where as you decrease in temperature demand increases. Given the full data set, a polynomial regression model would likely be a better fit.

#####
#Chapter 7, Question 4 - The data set souvenirs concerns the monthly sales figures of a shop which opened in January 1987 and sells gifts, souvenirs, and novelties. The shop is situated on the wharf at a beach resort town in Queensland, Australia. The sales volume varies with the seasonal population of tourists. There is a large influx of visitors to the town at Christmas and for the local surfing festival, held every March since 1988. Over time, the shop has expanded its premises, range of products, and staff.

# Question 4.a - Produce a time plot of the data and describe the patterns in the graph. Identify any unusual or unexpected fluctuations in the time series.

#View the data
souvenirs

## # A tsibble: 84 x 2 [1M]
##       Month Sales
##       <mth> <dbl>
##  1 1987 Jan 1665.
##  2 1987 Feb 2398.
##  3 1987 Mar 2841.
##  4 1987 Apr 3547.
##  5 1987 May 3753.
##  6 1987 Jun 3715.
##  7 1987 Jul 4350.
##  8 1987 Aug 3566.
##  9 1987 Sep 5022.
## 10 1987 Oct 6423.
## #  74 more rows
…
augment(fit_sales)

## # A tsibble: 84 x 6 [1M]
## # Key:       .model [1]
##    .model                                   Month Sales .fitted  .resid   .innov
##    <chr>                                    <mth> <dbl>   <dbl>   <dbl>    <dbl>
##  1 TSLM(log(Sales) ~ trend() + season()) 1987 Jan 1665.   2055.  -391.  -0.211  
##  2 TSLM(log(Sales) ~ trend() + season()) 1987 Feb 2398.   2702.  -304.  -0.119  
##  3 TSLM(log(Sales) ~ trend() + season()) 1987 Mar 2841.   4308. -1467.  -0.416  
##  4 TSLM(log(Sales) ~ trend() + season()) 1987 Apr 3547.   3224.   323.   0.0956 
##  5 TSLM(log(Sales) ~ trend() + season()) 1987 May 3753.   3381.   372.   0.104  
##  6 TSLM(log(Sales) ~ trend() + season()) 1987 Jun 3715.   3595.   120.   0.0329 
##  7 TSLM(log(Sales) ~ trend() + season()) 1987 Jul 4350.   4319.    30.4  0.00701
##  8 TSLM(log(Sales) ~ trend() + season()) 1987 Aug 3566.   4317.  -751.  -0.191  
##  9 TSLM(log(Sales) ~ trend() + season()) 1987 Sep 5022.   4787.   234.   0.0478 
## 10 TSLM(log(Sales) ~ trend() + season()) 1987 Oct 6423.   5291.  1132.   0.194  
## #  74 more rows
…
augment(fit_sales_festival)

## # A tsibble: 84 x 6 [1M]
## # Key:       .model [1]
##    .model                                                      Month Sales .fitted .resid    .innov
##    <chr>                                                       <mth> <dbl>   <dbl>  <dbl>     <dbl>
##  1 TSLM(log(Sales) ~ trend() + season() + Surfing_Festival) 1987 Jan 1665.   2083. -418.  -2.24e- 1
##  2 TSLM(log(Sales) ~ trend() + season() + Surfing_Festival) 1987 Feb 2398.   2738. -341.  -1.33e- 1
##  3 TSLM(log(Sales) ~ trend() + season() + Surfing_Festival) 1987 Mar 2841.   2841.    0   -1.80e-16
##  4 TSLM(log(Sales) ~ trend() + season() + Surfing_Festival) 1987 Apr 3547.   3268.  280.   8.21e- 2
##  5 TSLM(log(Sales) ~ trend() + season() + Surfing_Festival) 1987 May 3753.   3426.  327.   9.10e- 2
##  6 TSLM(log(Sales) ~ trend() + season() + Surfing_Festival) 1987 Jun 3715.   3643.   71.6  1.94e- 2
##  7 TSLM(log(Sales) ~ trend() + season() + Surfing_Festival) 1987 Jul 4350.   4378.  -28.0 -6.42e- 3
##  8 TSLM(log(Sales) ~ trend() + season() + Surfing_Festival) 1987 Aug 3566.   4376. -809.  -2.04e- 1
##  9 TSLM(log(Sales) ~ trend() + season() + Surfing_Festival) 1987 Sep 5022.   4852.  170.   3.44e- 2
## 10 TSLM(log(Sales) ~ trend() + season() + Surfing_Festival) 1987 Oct 6423.   5363. 1061.   1.80e- 1
## #  74 more rows
…
#####
# Question 4.i - How could you improve these predictions by modifying the model?

#I could improve the model by creating indicator variables where the model significantly deviates from the data. After looking at fitted v. data graph again, I see  significant deviation for March of 1991.

#Add in the new indicator variable
fit_sales_festival_modified <- souvenirs %>%
  mutate(Surfing_Festival = month(Month) == 3 & year(Month) >= 1988,
         March91_Ind = month(Month) == 3 & year(Month) == 1991) %>%
  model(TSLM(log(Sales) ~ trend() + season() + Surfing_Festival + March91_Ind))

augment(fit_sales_festival_modified)

## # A tsibble: 84 x 6 [1M]
## # Key:       .model [1]
##    .model                                                                    Month Sales .fitted .resid    .innov
##    <chr>                                                                     <mth> <dbl>   <dbl>  <dbl>     <dbl>
##  1 TSLM(log(Sales) ~ trend() + season() + Surfing_Festival + March91_Ind) 1987 Jan 1665.   2079. -415.  -2.22e- 1
##  2 TSLM(log(Sales) ~ trend() + season() + Surfing_Festival + March91_Ind) 1987 Feb 2398.   2733. -336.  -1.31e- 1
##  3 TSLM(log(Sales) ~ trend() + season() + Surfing_Festival + March91_Ind) 1987 Mar 2841.   2841.    0   -3.92e-16
##  4 TSLM(log(Sales) ~ trend() + season() + Surfing_Festival + March91_Ind) 1987 Apr 3547.   3261.  286.   8.40e- 2
##  5 TSLM(log(Sales) ~ trend() + season() + Surfing_Festival + March91_Ind) 1987 May 3753.   3420.  333.   9.29e- 2
##  6 TSLM(log(Sales) ~ trend() + season() + Surfing_Festival + March91_Ind) 1987 Jun 3715.   3636.   78.3  2.13e- 2
##  7 TSLM(log(Sales) ~ trend() + season() + Surfing_Festival + March91_Ind) 1987 Jul 4350.   4369.  -19.9 -4.56e- 3
##  8 TSLM(log(Sales) ~ trend() + season() + Surfing_Festival + March91_Ind) 1987 Aug 3566.   4367. -801.  -2.03e- 1
##  9 TSLM(log(Sales) ~ trend() + season() + Surfing_Festival + March91_Ind) 1987 Sep 5022.   4843.  179.   3.62e- 2
## 10 TSLM(log(Sales) ~ trend() + season() + Surfing_Festival + March91_Ind) 1987 Oct 6423.   5353. 1071.   1.82e- 1
## #  74 more rows
…
